CONTROL fa0bf4f9efb556f0dd5471121cda2a74ba82ea24718c13623a32d3f2b8a6b7e6
cmake 3.20.2
features core
portfile.cmake 0d29014dfdd147f23b3208bd8936139bdb83a8376909616eb01914aefe03e878
ports.cmake 9a4ba360ff68ef0b09aaf1dfe4f1fb599ed90a455607d51cde7c18f81840e362
post_build_checks 2
powershell 7.1.3
triplet x64-windows
triplet_abi 4556164a2cd3dd6f4742101eabb46def7e71b6e5856faa88e5d005aac12a803c-b569c9954a47274946415ff01b1a344c8549f3fc19cb931d50bc09d1e5630c1d-7f59d644721cd8ef681075361e3973764d83f654
vcpkg_from_sourceforge badecbc5e3c727e89e365c31d6f4a0b247e5fe9449e79ba65ad9fc02fa48b351
